{"_id":{ "$oid": "565ebfbac36a03df37812ddc" },"name":"Rashmi Sharma","phone":1575675673,"user_type":"user","pipedrive_pid":31,"doj":"2015-12-02T11:00:45.396Z","user_timezone":"-5.0","diet":{"2015":{"01":{"01":{"04:00":[{"meal_pic":"","meal_name":"Paneer Tikka","meal_protein":"200","meal_carbohydrate":"200","meal_fat":"200","meal_notes":"Take with green sauce"},{"meal_pic":"","meal_name":"Curd","meal_protein":"150","meal_carbohydrate":"300","meal_fat":"400","meal_notes":"Take with green sauce"},{"meal_pic":"","meal_name":"Paneer Tikka","meal_protein":"200","meal_carbohydrate":"200","meal_fat":"200","meal_notes":"Take with green sauce"}]}}}},"work_out":{"2015":{"01":{"01":[{"workout_name":"Paneer Tikka","meal_image":"200","meal_carbohydrate":"200","meal_fat":"200","meal_notes":"Take with green sauce"},{"meal_name":"Curd","meal_protein":"150","meal_carbohydrate":"300","meal_fat":"400","meal_notes":"Take with green sauce"},{"meal_name":"Paneer Tikka","meal_protein":"200","meal_carbohydrate":"200","meal_fat":"200","meal_notes":"Take with green sauce"}]}}}}
{"_id":{ "$oid": "565ebfdec36a03df37812ddd" },"name":"Dipti Dubey","phone":1575675671,"user_type":"user","pipedrive_pid":0,"doj":"2015-12-02T11:00:45.396Z","user_timezone":"-5.0","diet":{"2015":{"01":{"01":{"04:00":[{"meal_pic":"","meal_name":"Paneer Tikka","meal_protein":"200","meal_carbohydrate":"200","meal_fat":"200","meal_notes":"Take with green sauce"},{"meal_pic":"","meal_name":"Curd","meal_protein":"150","meal_carbohydrate":"300","meal_fat":"400","meal_notes":"Take with green sauce"},{"meal_pic":"","meal_name":"Paneer Tikka","meal_protein":"200","meal_carbohydrate":"200","meal_fat":"200","meal_notes":"Take with green sauce"}]}}}},"work_out":{"2015":{"01":{"01":[{"workout_name":"Paneer Tikka","meal_image":"200","meal_carbohydrate":"200","meal_fat":"200","meal_notes":"Take with green sauce"},{"meal_name":"Curd","meal_protein":"150","meal_carbohydrate":"300","meal_fat":"400","meal_notes":"Take with green sauce"},{"meal_name":"Paneer Tikka","meal_protein":"200","meal_carbohydrate":"200","meal_fat":"200","meal_notes":"Take with green sauce"}]}}}}
{"_id":{ "$oid": "565ec00dc36a03df37812dde" },"name":"Rakesh kumar","phone":1575675672,"user_type":"user","pipedrive_pid":0,"doj":"2015-12-02T11:00:45.396Z","user_timezone":"-5.0","diet":{"2015":{"01":{"01":{"04:00":[{"meal_pic":"","meal_name":"Paneer Tikka","meal_protein":"200","meal_carbohydrate":"200","meal_fat":"200","meal_notes":"Take with green sauce"},{"meal_pic":"","meal_name":"Curd","meal_protein":"150","meal_carbohydrate":"300","meal_fat":"400","meal_notes":"Take with green sauce"},{"meal_pic":"","meal_name":"Paneer Tikka","meal_protein":"200","meal_carbohydrate":"200","meal_fat":"200","meal_notes":"Take with green sauce"}]}}}},"work_out":{"2015":{"01":{"01":[{"workout_name":"Paneer Tikka","meal_image":"200","meal_carbohydrate":"200","meal_fat":"200","meal_notes":"Take with green sauce"},{"meal_name":"Curd","meal_protein":"150","meal_carbohydrate":"300","meal_fat":"400","meal_notes":"Take with green sauce"},{"meal_name":"Paneer Tikka","meal_protein":"200","meal_carbohydrate":"200","meal_fat":"200","meal_notes":"Take with green sauce"}]}}}}
{"_id":{ "$oid": "565ec03cc36a03df37812ddf" },"name":"Lokesh Kumar","phone":1575675674,"user_type":"user","pipedrive_pid":0,"doj":"2015-12-02T11:00:45.396Z","user_timezone":"-5.0","diet":{"2015":{"01":{"01":{"04:00":[{"meal_pic":"","meal_name":"Paneer Tikka","meal_protein":"200","meal_carbohydrate":"200","meal_fat":"200","meal_notes":"Take with green sauce"},{"meal_pic":"","meal_name":"Curd","meal_protein":"150","meal_carbohydrate":"300","meal_fat":"400","meal_notes":"Take with green sauce"},{"meal_pic":"","meal_name":"Paneer Tikka","meal_protein":"200","meal_carbohydrate":"200","meal_fat":"200","meal_notes":"Take with green sauce"}]}}}},"work_out":{"2015":{"01":{"01":[{"workout_name":"Paneer Tikka","meal_image":"200","meal_carbohydrate":"200","meal_fat":"200","meal_notes":"Take with green sauce"},{"meal_name":"Curd","meal_protein":"150","meal_carbohydrate":"300","meal_fat":"400","meal_notes":"Take with green sauce"},{"meal_name":"Paneer Tikka","meal_protein":"200","meal_carbohydrate":"200","meal_fat":"200","meal_notes":"Take with green sauce"}]}}}}
{"_id":{ "$oid": "565ec058c36a03df37812de0" },"name":"Dev Singh","phone":1575675675,"user_type":"user","pipedrive_pid":0,"doj":"2015-12-02T11:00:45.396Z","user_timezone":"-5.0","diet":{"2015":{"01":{"01":{"04:00":[{"meal_pic":"","meal_name":"Paneer Tikka","meal_protein":"200","meal_carbohydrate":"200","meal_fat":"200","meal_notes":"Take with green sauce"},{"meal_pic":"","meal_name":"Curd","meal_protein":"150","meal_carbohydrate":"300","meal_fat":"400","meal_notes":"Take with green sauce"},{"meal_pic":"","meal_name":"Paneer Tikka","meal_protein":"200","meal_carbohydrate":"200","meal_fat":"200","meal_notes":"Take with green sauce"}]}}}},"work_out":{"2015":{"01":{"01":[{"workout_name":"Paneer Tikka","meal_image":"200","meal_carbohydrate":"200","meal_fat":"200","meal_notes":"Take with green sauce"},{"meal_name":"Curd","meal_protein":"150","meal_carbohydrate":"300","meal_fat":"400","meal_notes":"Take with green sauce"},{"meal_name":"Paneer Tikka","meal_protein":"200","meal_carbohydrate":"200","meal_fat":"200","meal_notes":"Take with green sauce"}]}}}}
{"_id":{ "$oid": "565ec0f6de7bccaa20b239f6" },"name":"Govind Singh","phone":157567567876,"user_type":"user","pipedrive_pid":0,"doj":"2015-12-02T11:00:45.396Z","user_timezone":"-5.0","diet":{"2015":{"01":{"01":{"04:00":[{"meal_pic":"","meal_name":"Paneer Tikka","meal_protein":"200","meal_carbohydrate":"200","meal_fat":"200","meal_notes":"Take with green sauce"},{"meal_pic":"","meal_name":"Curd","meal_protein":"150","meal_carbohydrate":"300","meal_fat":"400","meal_notes":"Take with green sauce"},{"meal_pic":"","meal_name":"Paneer Tikka","meal_protein":"200","meal_carbohydrate":"200","meal_fat":"200","meal_notes":"Take with green sauce"}]}}}},"work_out":{"2015":{"01":{"01":[{"workout_name":"Paneer Tikka","meal_image":"200","meal_carbohydrate":"200","meal_fat":"200","meal_notes":"Take with green sauce"},{"meal_name":"Curd","meal_protein":"150","meal_carbohydrate":"300","meal_fat":"400","meal_notes":"Take with green sauce"},{"meal_name":"Paneer Tikka","meal_protein":"200","meal_carbohydrate":"200","meal_fat":"200","meal_notes":"Take with green sauce"}]}}}}
{"_id":{ "$oid": "565ecebb71868e6008c6e184" },"name":"Abhilash Malguri","phone":157563,"user_type":"user","pipedrive_pid":0,"doj":"2015-12-02T11:00:45.396Z","user_timezone":"-5.0","diet":{"2015":{"01":{"01":{"04:00":[{"meal_pic":"","meal_name":"Paneer Tikka","meal_protein":"200","meal_carbohydrate":"200","meal_fat":"200","meal_notes":"Take with green sauce"},{"meal_pic":"","meal_name":"Curd","meal_protein":"150","meal_carbohydrate":"300","meal_fat":"400","meal_notes":"Take with green sauce"},{"meal_pic":"","meal_name":"Paneer Tikka","meal_protein":"200","meal_carbohydrate":"200","meal_fat":"200","meal_notes":"Take with green sauce"}]}}}},"work_out":{"2015":{"01":{"01":[{"workout_name":"Paneer Tikka","meal_image":"200","meal_carbohydrate":"200","meal_fat":"200","meal_notes":"Take with green sauce"},{"meal_name":"Curd","meal_protein":"150","meal_carbohydrate":"300","meal_fat":"400","meal_notes":"Take with green sauce"},{"meal_name":"Paneer Tikka","meal_protein":"200","meal_carbohydrate":"200","meal_fat":"200","meal_notes":"Take with green sauce"}]}}}}
{"_id":{ "$oid": "565ebf0cc36a03df37812ddb" },"name":"Dev Kishore","phone":1243234334,"user_type":"user","pipedrive_pid":0,"doj":"2015-12-02T11:00:45.396Z","user_timezone":"-5.0","diet":{"2015":{"12":{"01":{"0400":[{"meal_pic":"","meal_name":"Paneer Tikka","meal_protein":"200","meal_carbohydrate":"200","meal_fat":"200","meal_notes":"Take with green sauce"},{"meal_pic":"","meal_name":"Curd","meal_protein":"150","meal_carbohydrate":"300","meal_fat":"400","meal_notes":"Take with green sauce"},{"meal_pic":"","meal_name":"Paneer Tikka","meal_protein":"200","meal_carbohydrate":"200","meal_fat":"200","meal_notes":"Take with green sauce"}],"0430":[{"meal_pic":"","meal_name":"Butter Chiken","meal_protein":"200","meal_carbohydrate":"200","meal_fat":"200","meal_notes":"Take with green sauce"},{"meal_pic":"","meal_name":"Curd","meal_protein":"150","meal_carbohydrate":"300","meal_fat":"400","meal_notes":"Take with green sauce"},{"meal_pic":"","meal_name":"Paneer Tikka","meal_protein":"200","meal_carbohydrate":"200","meal_fat":"200","meal_notes":"Take with green sauce"}]},"02":{"0400":[{"meal_pic":"","meal_name":"Pizza","meal_protein":"200","meal_carbohydrate":"200","meal_fat":"200","meal_notes":"Take with green sauce"},{"meal_pic":"","meal_name":"Curd","meal_protein":"150","meal_carbohydrate":"300","meal_fat":"400","meal_notes":"Take with green sauce"},{"meal_pic":"","meal_name":"Paneer Tikka","meal_protein":"200","meal_carbohydrate":"200","meal_fat":"200","meal_notes":"Take with green sauce"}],"0430":[{"meal_pic":"","meal_name":"Burger","meal_protein":"200","meal_carbohydrate":"200","meal_fat":"200","meal_notes":"Take with green sauce"},{"meal_pic":"","meal_name":"Curd","meal_protein":"150","meal_carbohydrate":"300","meal_fat":"400","meal_notes":"Take with green sauce"},{"meal_pic":"","meal_name":"Paneer Tikka","meal_protein":"200","meal_carbohydrate":"200","meal_fat":"200","meal_notes":"Take with green sauce"}]}}}},"work_out":{"2015":{"01":{"01":[{"workout_name":"Paneer Tikka","meal_image":"200","meal_carbohydrate":"200","meal_fat":"200","meal_notes":"Take with green sauce"},{"meal_name":"Curd","meal_protein":"150","meal_carbohydrate":"300","meal_fat":"400","meal_notes":"Take with green sauce"},{"meal_name":"Paneer Tikka","meal_protein":"200","meal_carbohydrate":"200","meal_fat":"200","meal_notes":"Take with green sauce"}]}}}}